…
  player_dismissed = col_character(),
  dismissal_kind = col_character(),
  fielder = col_character()
)
See spec(...) for full column specifications.
> View(ipl)
> View(ipl)
> View(ipl)
> view(ipl)
Error: could not find function "view"
> View(ipl)
> subset(acs,over=1)
Error in subset(acs, over = 1) : object 'acs' not found
> subset(ipl,over=1)
# A tibble: 136,598 × 21
   match_id inning          batting_team                bowling_team  over  ball     batsman
      <int>  <int>                 <chr>                       <chr> <int> <int>       <chr>
1         1      1 Kolkata Knight Riders Royal Challengers Bangalore     1     1  SC Ganguly
2         1      1 Kolkata Knight Riders Royal Challengers Bangalore     1     2 BB McCullum
3         1      1 Kolkata Knight Riders Royal Challengers Bangalore     1     3 BB McCullum
4         1      1 Kolkata Knight Riders Royal Challengers Bangalore     1     4 BB McCullum
5         1      1 Kolkata Knight Riders Royal Challengers Bangalore     1     5 BB McCullum
6         1      1 Kolkata Knight Riders Royal Challengers Bangalore     1     6 BB McCullum
7         1      1 Kolkata Knight Riders Royal Challengers Bangalore     1     7 BB McCullum
8         1      1 Kolkata Knight Riders Royal Challengers Bangalore     2     1 BB McCullum
9         1      1 Kolkata Knight Riders Royal Challengers Bangalore     2     2 BB McCullum
10        1      1 Kolkata Knight Riders Royal Challengers Bangalore     2     3 BB McCullum
# ... with 136,588 more rows, and 14 more variables: non_striker <chr>, bowler <chr>,
#   is_super_over <int>, wide_runs <int>, bye_runs <int>, legbye_runs <int>, noball_runs <int>,
#   penalty_runs <int>, batsman_runs <int>, extra_runs <int>, total_runs <int>,
#   player_dismissed <chr>, dismissal_kind <chr>, fielder <chr>
…
